module hikvision

go 1.19

require (
	github.com/google/uuid v1.3.0
	github.com/labstack/gommon v0.4.0
)

require (
	github.com/mattn/go-colorable v0.1.11 // indirect
	github.com/mattn/go-isatty v0.0.14 // indirect
	github.com/stretchr/testify v1.8.1 // indirect
	github.com/valyala/bytebufferpool v1.0.0 // indirect
	github.com/valyala/fasttemplate v1.2.1 // indirect
	golang.org/x/sys v0.0.0-20211103235746-7861aae1554b // indirect
)
